{
  "response": {
    "result": {
      "invoice_profiles": [
        {
          "accounting_systemid": "y5lRP",
          "address": "",
          "amount": {
            "amount": "1500.00",
            "code": "CAD"
          },
          "auto_bill": false,
          "bill_gateway": null,
          "city": "",
          "code": "",
          "country": "Netherlands",
          "create_date": "2023-12-12",
          "currency_code": "CAD",
          "customerid": 718847,
          "description": "",
          "disable": false,
          "discount_total": {
            "amount": "0.00",
            "code": "CAD"
          },
          "discount_value": "0",
          "due_offset_days": 30,
          "ext_archive": null,
          "fname": "Guy",
          "frequency": "m",
          "id": 92058,
          "include_unbilled_time": false,
          "language": "en",
          "lname": "Harris",
          "notes": "next = Dec 9",
          "numberRecurring": 0,
          "occurrences_to_date": 4,
          "organization": "CMS-Clean",
          "ownerid": 1,
          "payment_details": "",
          "po_number": "",
          "profileid": 92058,
          "province": "",
          "require_auto_bill": false,
          "retainer_id": null,
          "send_email": false,
          "send_gmail": false,
          "street": "",
          "street2": "",
          "terms": "",
          "total_accrued_revenue": null,
          "updated": "2023-12-12 10:08:07",
          "vat_name": "",
          "vat_number": "",
          "vis_state": 0
        },
        {
          "accounting_systemid": "y5lRP",
          "address": "",
          "amount": {
            "amount": "1500.00",
            "code": "CAD"
          },
          "auto_bill": false,
          "bill_gateway": null,
          "city": "",
          "code": "",
          "country": "Netherlands",
          "create_date": "2023-12-08",
          "currency_code": "CAD",
          "customerid": 718847,
          "description": "",
          "disable": false,
          "discount_total": {
            "amount": "0.00",
            "code": "CAD"
          },
          "discount_value": "0",
          "due_offset_days": 30,
          "ext_archive": null,
          "fname": "Guy",
          "frequency": "m",
          "id": 92057,
          "include_unbilled_time": false,
          "language": "en",
          "lname": "Harris",
          "notes": "",
          "numberRecurring": 0,
          "occurrences_to_date": 2,
          "organization": "CMS-Clean",
          "ownerid": 1,
          "payment_details": "",
          "po_number": null,
          "profileid": 92057,
          "province": "",
          "require_auto_bill": false,
          "retainer_id": null,
          "send_email": false,
          "send_gmail": false,
          "street": "",
          "street2": "",
          "terms": null,
          "total_accrued_revenue": null,
          "updated": "2023-12-08 11:33:15",
          "vat_name": "",
          "vat_number": "",
          "vis_state": 0
        },
        {
          "accounting_systemid": "y5lRP",
          "address": "",
          "amount": {
            "amount": "15000.00",
            "code": "CAD"
          },
          "auto_bill": false,
          "bill_gateway": null,
          "city": "Elden Ring",
          "code": "12345",
          "country": "United States",
          "create_date": "2023-10-16",
          "currency_code": "CAD",
          "customerid": 620101,
          "description": "November 29, 2023",
          "disable": false,
          "discount_total": {
            "amount": "0.00",
            "code": "CAD"
          },
          "discount_value": "0",
          "due_offset_days": 30,
          "ext_archive": null,
          "fname": "Professor",
          "frequency": "m",
          "id": 91786,
          "include_unbilled_time": false,
          "language": "en",
          "lname": "Oak",
          "notes": "",
          "numberRecurring": 0,
          "occurrences_to_date": 4,
          "organization": "Being a Sidekick",
          "ownerid": 1,
          "payment_details": "",
          "po_number": null,
          "profileid": 91786,
          "province": "New York",
          "require_auto_bill": false,
          "retainer_id": null,
          "send_email": true,
          "send_gmail": false,
          "street": "1 Ash drive",
          "street2": "",
          "terms": null,
          "total_accrued_revenue": null,
          "updated": "2023-11-29 17:05:01",
          "vat_name": "",
          "vat_number": "",
          "vis_state": 0
        },
        {
          "accounting_systemid": "y5lRP",
          "address": "",
          "amount": {
            "amount": "117260.00",
            "code": "CAD"
          },
          "auto_bill": false,
          "bill_gateway": null,
          "city": "Chicago",
          "code": "60315",
          "country": "United States",
          "create_date": "2023-10-17",
          "currency_code": "CAD",
          "customerid": 420675,
          "description": "::month::",
          "disable": false,
          "discount_total": {
            "amount": "0.00",
            "code": "CAD"
          },
          "discount_value": "0",
          "due_offset_days": 30,
          "ext_archive": null,
          "fname": "John",
          "frequency": "m",
          "id": 91785,
          "include_unbilled_time": false,
          "language": "en",
          "lname": "Smithing",
          "notes": "",
          "numberRecurring": 0,
          "occurrences_to_date": 5,
          "organization": "Acme1 Inc.",
          "ownerid": 1,
          "payment_details": "",
          "po_number": null,
          "profileid": 91785,
          "province": "Illinois",
          "require_auto_bill": false,
          "retainer_id": null,
          "send_email": true,
          "send_gmail": false,
          "street": "220 Bay St.",
          "street2": "",
          "terms": null,
          "total_accrued_revenue": null,
          "updated": "2024-01-16 22:50:28",
          "vat_name": "",
          "vat_number": "",
          "vis_state": 0
        },
        {
          "accounting_systemid": "y5lRP",
          "address": "",
          "amount": {
            "amount": "100.00",
            "code": "CAD"
          },
          "auto_bill": false,
          "bill_gateway": null,
          "city": "",
          "code": "",
          "country": "",
          "create_date": "2022-01-28",
          "currency_code": "CAD",
          "customerid": 557552,
          "description": "",
          "disable": false,
          "discount_total": {
            "amount": "0.00",
            "code": "CAD"
          },
          "discount_value": "0",
          "due_offset_days": 30,
          "ext_archive": null,
          "fname": "Steve",
          "frequency": "m",
          "id": 86987,
          "include_unbilled_time": false,
          "language": "en",
          "lname": "F",
          "notes": "",
          "numberRecurring": 5,
          "occurrences_to_date": 5,
          "organization": "Steve F",
          "ownerid": 1,
          "payment_details": "",
          "po_number": null,
          "profileid": 86987,
          "province": "",
          "require_auto_bill": false,
          "retainer_id": 35533,
          "send_email": true,
          "send_gmail": false,
          "street": "",
          "street2": "",
          "terms": null,
          "total_accrued_revenue": null,
          "updated": "2022-01-28 12:11:12",
          "vat_name": null,
          "vat_number": null,
          "vis_state": 0
        },
        {
          "accounting_systemid": "y5lRP",
          "address": "",
          "amount": {
            "amount": "1500.00",
            "code": "CAD"
          },
          "auto_bill": false,
          "bill_gateway": null,
          "city": "Toronto a2b3c1",
          "code": "555-555-5555",
          "country": "United Arab Emirates",
          "create_date": "2021-09-30",
          "currency_code": "CAD",
          "customerid": 661250,
          "description": "",
          "disable": false,
          "discount_total": {
            "amount": "0.00",
            "code": "CAD"
          },
          "discount_value": "0",
          "due_offset_days": 30,
          "ext_archive": null,
          "fname": "Robyn",
          "frequency": "m",
          "id": 85601,
          "include_unbilled_time": false,
          "language": "en",
          "lname": "Robyn",
          "notes": "",
          "numberRecurring": 0,
          "occurrences_to_date": 28,
          "organization": "GET FIT",
          "ownerid": 1,
          "payment_details": "",
          "po_number": null,
          "profileid": 85601,
          "province": "Ontario",
          "require_auto_bill": false,
          "retainer_id": null,
          "send_email": true,
          "send_gmail": false,
          "street": "555 Street",
          "street2": "",
          "terms": null,
          "total_accrued_revenue": null,
          "updated": "2022-06-13 08:37:27",
          "vat_name": null,
          "vat_number": null,
          "vis_state": 0
        },
        {
          "accounting_systemid": "y5lRP",
          "address": "",
          "amount": {
            "amount": "1500.00",
            "code": "USD"
          },
          "auto_bill": false,
          "bill_gateway": null,
          "city": "",
          "code": "",
          "country": "",
          "create_date": "2021-09-30",
          "currency_code": "USD",
          "customerid": 407167,
          "description": "",
          "disable": false,
          "discount_total": {
            "amount": "0.00",
            "code": "USD"
          },
          "discount_value": "0",
          "due_offset_days": 30,
          "ext_archive": null,
          "fname": "Gouf",
          "frequency": "m",
          "id": 85600,
          "include_unbilled_time": false,
          "language": "en",
          "lname": "Test",
          "notes": "",
          "numberRecurring": 0,
          "occurrences_to_date": 28,
          "organization": "Gouf Test",
          "ownerid": 1,
          "payment_details": "",
          "po_number": null,
          "profileid": 85600,
          "province": "",
          "require_auto_bill": false,
          "retainer_id": null,
          "send_email": true,
          "send_gmail": false,
          "street": "",
          "street2": "",
          "terms": null,
          "total_accrued_revenue": null,
          "updated": "2023-11-07 11:36:03",
          "vat_name": "",
          "vat_number": "",
          "vis_state": 0
        },
        {
          "accounting_systemid": "y5lRP",
          "address": "",
          "amount": {
            "amount": "1500.00",
            "code": "CAD"
          },
          "auto_bill": false,
          "bill_gateway": null,
          "city": "Elden Ring",
          "code": "12345",
          "country": "United States",
          "create_date": "2021-09-30",
          "currency_code": "CAD",
          "customerid": 620101,
          "description": "",
          "disable": false,
          "discount_total": {
            "amount": "0.00",
            "code": "CAD"
          },
          "discount_value": "0",
          "due_offset_days": 30,
          "ext_archive": null,
          "fname": "Professor",
          "frequency": "m",
          "id": 85599,
          "include_unbilled_time": false,
          "language": "en",
          "lname": "Oak",
          "notes": "",
          "numberRecurring": 0,
          "occurrences_to_date": 28,
          "organization": "Being a Sidekick",
          "ownerid": 1,
          "payment_details": "",
          "po_number": null,
          "profileid": 85599,
          "province": "New York",
          "require_auto_bill": false,
          "retainer_id": null,
          "send_email": true,
          "send_gmail": false,
          "street": "1 Ash drive",
          "street2": "",
          "terms": null,
          "total_accrued_revenue": null,
          "updated": "2023-11-29 16:59:23",
          "vat_name": "",
          "vat_number": "",
          "vis_state": 0
        },
        {
          "accounting_systemid": "y5lRP",
          "address": "",
          "amount": {
            "amount": "10000.00",
            "code": "USD"
          },
          "auto_bill": false,
          "bill_gateway": null,
          "city": "",
          "code": "",
          "country": "",
          "create_date": "2021-09-17",
          "currency_code": "USD",
          "customerid": 664265,
          "description": "",
          "disable": false,
          "discount_total": {
            "amount": "0.00",
            "code": "USD"
          },
          "discount_value": "0",
          "due_offset_days": 30,
          "ext_archive": null,
          "fname": "",
          "frequency": "m",
          "id": 85598,
          "include_unbilled_time": false,
          "language": "en",
          "lname": "",
          "notes": "",
          "numberRecurring": 10,
          "occurrences_to_date": 10,
          "organization": "Anaheim Electronics",
          "ownerid": 1,
          "payment_details": "",
          "po_number": null,
          "profileid": 85598,
          "province": "",
          "require_auto_bill": false,
          "retainer_id": null,
          "send_email": true,
          "send_gmail": false,
          "street": "",
          "street2": "",
          "terms": null,
          "total_accrued_revenue": null,
          "updated": "2021-09-17 14:45:44",
          "vat_name": null,
          "vat_number": null,
          "vis_state": 0
        },
        {
          "accounting_systemid": "y5lRP",
          "address": "",
          "amount": {
            "amount": "0.00",
            "code": "USD"
          },
          "auto_bill": false,
          "bill_gateway": null,
          "city": "",
          "code": "",
          "country": "",
          "create_date": "2021-09-09",
          "currency_code": "USD",
          "customerid": 664265,
          "description": "",
          "disable": false,
          "discount_total": {
            "amount": "0.00",
            "code": "USD"
          },
          "discount_value": "0",
          "due_offset_days": 30,
          "ext_archive": null,
          "fname": "",
          "frequency": "m",
          "id": 85530,
          "include_unbilled_time": true,
          "language": "en",
          "lname": "",
          "notes": "test",
          "numberRecurring": 2,
          "occurrences_to_date": 2,
          "organization": "Anaheim Electronics",
          "ownerid": 1,
          "payment_details": "",
          "po_number": null,
          "profileid": 85530,
          "province": "",
          "require_auto_bill": false,
          "retainer_id": null,
          "send_email": true,
          "send_gmail": false,
          "street": "",
          "street2": "",
          "terms": null,
          "total_accrued_revenue": null,
          "updated": "2021-09-09 12:15:09",
          "vat_name": null,
          "vat_number": null,
          "vis_state": 0
        },
        {
          "accounting_systemid": "y5lRP",
          "address": "",
          "amount": {
            "amount": "0.00",
            "code": "CAD"
          },
          "auto_bill": false,
          "bill_gateway": null,
          "city": "Queens",
          "code": "12345",
          "country": "United States",
          "create_date": "2021-09-09",
          "currency_code": "CAD",
          "customerid": 594275,
          "description": "",
          "disable": false,
          "discount_total": {
            "amount": "0.00",
            "code": "CAD"
          },
          "discount_value": "0",
          "due_offset_days": 30,
          "ext_archive": null,
          "fname": "Jaya",
          "frequency": "m",
          "id": 85529,
          "include_unbilled_time": true,
          "language": "en",
          "lname": "Gobin",
          "notes": "",
          "numberRecurring": 3,
          "occurrences_to_date": 3,
          "organization": "Mangobirchtree Inc.",
          "ownerid": 1,
          "payment_details": "",
          "po_number": null,
          "profileid": 85529,
          "province": "New York",
          "require_auto_bill": false,
          "retainer_id": null,
          "send_email": true,
          "send_gmail": false,
          "street": "1234 Queens",
          "street2": "",
          "terms": null,
          "total_accrued_revenue": null,
          "updated": "2021-09-29 18:40:30",
          "vat_name": null,
          "vat_number": null,
          "vis_state": 0
        },
        {
          "accounting_systemid": "y5lRP",
          "address": "",
          "amount": {
            "amount": "1500.00",
            "code": "CAD"
          },
          "auto_bill": false,
          "bill_gateway": null,
          "city": "",
          "code": "",
          "country": "",
          "create_date": "2021-05-20",
          "currency_code": "CAD",
          "customerid": 557552,
          "description": "",
          "disable": false,
          "discount_total": {
            "amount": "0.00",
            "code": "CAD"
          },
          "discount_value": "0",
          "due_offset_days": 0,
          "ext_archive": null,
          "fname": "Steve",
          "frequency": "m",
          "id": 84064,
          "include_unbilled_time": false,
          "language": "en",
          "lname": "F",
          "notes": "",
          "numberRecurring": 2,
          "occurrences_to_date": 2,
          "organization": "Steve F",
          "ownerid": 1,
          "payment_details": "",
          "po_number": null,
          "profileid": 84064,
          "province": "",
          "require_auto_bill": false,
          "retainer_id": null,
          "send_email": true,
          "send_gmail": false,
          "street": "",
          "street2": "",
          "terms": null,
          "total_accrued_revenue": null,
          "updated": "2021-05-20 09:58:49",
          "vat_name": null,
          "vat_number": null,
          "vis_state": 0
        },
        {
          "accounting_systemid": "y5lRP",
          "address": "",
          "amount": {
            "amount": "1500.00",
            "code": "CAD"
          },
          "auto_bill": false,
          "bill_gateway": null,
          "city": "Chicago",
          "code": "60315",
          "country": "United States",
          "create_date": "2021-04-12",
          "currency_code": "CAD",
          "customerid": 420675,
          "description": "description",
          "disable": false,
          "discount_total": {
            "amount": "0.00",
            "code": "CAD"
          },
          "discount_value": "0",
          "due_offset_days": 30,
          "ext_archive": null,
          "fname": "John",
          "frequency": "m",
          "id": 82857,
          "include_unbilled_time": false,
          "language": "en",
          "lname": "Smithing",
          "notes": "",
          "numberRecurring": 0,
          "occurrences_to_date": 34,
          "organization": "Acme1 Inc.",
          "ownerid": 1,
          "payment_details": "",
          "po_number": "II",
          "profileid": 82857,
          "province": "Illinois",
          "require_auto_bill": false,
          "retainer_id": null,
          "send_email": false,
          "send_gmail": false,
          "street": "220 Bay St.",
          "street2": "",
          "terms": null,
          "total_accrued_revenue": null,
          "updated": "2021-04-12 11:52:50",
          "vat_name": "",
          "vat_number": "",
          "vis_state": 0
        },
        {
          "accounting_systemid": "y5lRP",
          "address": "",
          "amount": {
            "amount": "1500.00",
            "code": "CAD"
          },
          "auto_bill": false,
          "bill_gateway": null,
          "city": "Chicago",
          "code": "60315",
          "country": "United States",
          "create_date": "2021-04-12",
          "currency_code": "CAD",
          "customerid": 420675,
          "description": "",
          "disable": false,
          "discount_total": {
            "amount": "0.00",
            "code": "CAD"
          },
          "discount_value": "0",
          "due_offset_days": 30,
          "ext_archive": null,
          "fname": "John",
          "frequency": "m",
          "id": 82855,
          "include_unbilled_time": false,
          "language": "en",
          "lname": "Smithing",
          "notes": "",
          "numberRecurring": 0,
          "occurrences_to_date": 34,
          "organization": "Acme1 Inc.",
          "ownerid": 1,
          "payment_details": "",
          "po_number": null,
          "profileid": 82855,
          "province": "Illinois",
          "require_auto_bill": false,
          "retainer_id": null,
          "send_email": false,
          "send_gmail": false,
          "street": "220 Bay St.",
          "street2": "",
          "terms": null,
          "total_accrued_revenue": null,
          "updated": "2021-04-12 11:48:59",
          "vat_name": "",
          "vat_number": "",
          "vis_state": 0
        },
        {
          "accounting_systemid": "y5lRP",
          "address": "",
          "amount": {
            "amount": "0.00",
            "code": "CAD"
          },
          "auto_bill": false,
          "bill_gateway": null,
          "city": "",
          "code": "",
          "country": "",
          "create_date": "2021-04-11",
          "currency_code": "CAD",
          "customerid": 557552,
          "description": "",
          "disable": false,
          "discount_total": {
            "amount": "0.00",
            "code": "CAD"
          },
          "discount_value": "0",
          "due_offset_days": 30,
          "ext_archive": null,
          "fname": "Steve",
          "frequency": "m",
          "id": 82841,
          "include_unbilled_time": true,
          "language": "en",
          "lname": "F",
          "notes": "",
          "numberRecurring": 10,
          "occurrences_to_date": 10,
          "organization": "Steve F",
          "ownerid": 1,
          "payment_details": "",
          "po_number": "Unbilled Time.",
          "profileid": 82841,
          "province": "",
          "require_auto_bill": false,
          "retainer_id": null,
          "send_email": true,
          "send_gmail": false,
          "street": "",
          "street2": "",
          "terms": null,
          "total_accrued_revenue": null,
          "updated": "2021-04-11 18:08:30",
          "vat_name": null,
          "vat_number": null,
          "vis_state": 0
        }
      ],
      "page": 1,
      "pages": 5,
      "per_page": 15,
      "total": 65
    }
  }
}