{
  "response": {
    "result": {
      "invoice_profiles": [
        {
          "accounting_systemid": "y5lRP",
          "address": "",
          "amount": {
            "amount": "210.00",
            "code": "USD"
          },
          "auto_bill": false,
          "bill_gateway": null,
          "city": "",
          "code": "",
          "country": "",
          "create_date": "2018-12-10",
          "currency_code": "USD",
          "customerid": 223335,
          "description": "double sided side-sword, 25 inches, with cross-guard",
          "disable": false,
          "discount_total": {
            "amount": "0.00",
            "code": "USD"
          },
          "discount_value": "0",
          "due_offset_days": 30,
          "ext_archive": null,
          "fname": "Zaku",
          "frequency": "m",
          "id": 46074,
          "include_unbilled_time": false,
          "language": "en",
          "lname": "II",
          "notes": "",
          "numberRecurring": 3,
          "occurrences_to_date": 3,
          "organization": "Zaku II",
          "ownerid": 1,
          "payment_details": "",
          "po_number": null,
          "profileid": 46074,
          "province": "",
          "require_auto_bill": false,
          "retainer_id": null,
          "send_email": true,
          "send_gmail": false,
          "street": "",
          "street2": "",
          "terms": null,
          "total_accrued_revenue": null,
          "updated": "2018-12-10 17:09:30",
          "vat_name": null,
          "vat_number": null,
          "vis_state": 0
        },
        {
          "accounting_systemid": "y5lRP",
          "address": "",
          "amount": {
            "amount": "100.00",
            "code": "USD"
          },
          "auto_bill": false,
          "bill_gateway": null,
          "city": "",
          "code": "",
          "country": "Canada",
          "create_date": "2018-11-28",
          "currency_code": "USD",
          "customerid": 466091,
          "description": "Excess time will be billed at a rate of $300.00/hour.",
          "disable": false,
          "discount_total": {
            "amount": "0.00",
            "code": "USD"
          },
          "discount_value": "0",
          "due_offset_days": 30,
          "ext_archive": null,
          "fname": "",
          "frequency": "12m",
          "id": 45140,
          "include_unbilled_time": false,
          "language": "en",
          "lname": "",
          "notes": "",
          "numberRecurring": 1,
          "occurrences_to_date": 1,
          "organization": "Adamadamadam",
          "ownerid": 1,
          "payment_details": "",
          "po_number": null,
          "profileid": 45140,
          "province": "",
          "require_auto_bill": false,
          "retainer_id": 562,
          "send_email": true,
          "send_gmail": false,
          "street": "",
          "street2": "",
          "terms": null,
          "total_accrued_revenue": null,
          "updated": "2018-11-28 14:38:57",
          "vat_name": null,
          "vat_number": null,
          "vis_state": 0
        },
        {
          "accounting_systemid": "y5lRP",
          "address": "",
          "amount": {
            "amount": "500.00",
            "code": "USD"
          },
          "auto_bill": false,
          "bill_gateway": null,
          "city": "",
          "code": "",
          "country": "United Kingdom",
          "create_date": "2018-09-11",
          "currency_code": "USD",
          "customerid": 337368,
          "description": "",
          "disable": false,
          "discount_total": {
            "amount": "0.00",
            "code": "USD"
          },
          "discount_value": "0",
          "due_offset_days": 30,
          "ext_archive": null,
          "fname": "MS Gouf",
          "frequency": "m",
          "id": 42117,
          "include_unbilled_time": false,
          "language": "en",
          "lname": "",
          "notes": "",
          "numberRecurring": 6,
          "occurrences_to_date": 6,
          "organization": "Ranba Ral",
          "ownerid": 1,
          "payment_details": "",
          "po_number": null,
          "profileid": 42117,
          "province": "",
          "require_auto_bill": false,
          "retainer_id": 121,
          "send_email": true,
          "send_gmail": false,
          "street": "",
          "street2": "",
          "terms": null,
          "total_accrued_revenue": null,
          "updated": "2018-09-11 15:12:08",
          "vat_name": "VAT Number",
          "vat_number": "xxx-0001xs2",
          "vis_state": 0
        },
        {
          "accounting_systemid": "y5lRP",
          "address": "",
          "amount": {
            "amount": "50.00",
            "code": "USD"
          },
          "auto_bill": false,
          "bill_gateway": null,
          "city": "",
          "code": "",
          "country": "",
          "create_date": "2018-08-23",
          "currency_code": "USD",
          "customerid": 420689,
          "description": "",
          "disable": false,
          "discount_total": {
            "amount": "0.00",
            "code": "USD"
          },
          "discount_value": "0",
          "due_offset_days": 30,
          "ext_archive": null,
          "fname": "Zaku",
          "frequency": "m",
          "id": 41131,
          "include_unbilled_time": false,
          "language": "en",
          "lname": "Four",
          "notes": "",
          "numberRecurring": 7,
          "occurrences_to_date": 7,
          "organization": "Zaku4",
          "ownerid": 1,
          "payment_details": "",
          "po_number": null,
          "profileid": 41131,
          "province": "",
          "require_auto_bill": false,
          "retainer_id": 17,
          "send_email": true,
          "send_gmail": false,
          "street": "",
          "street2": "",
          "terms": "Excess time will be billed at a rate of $60.00/hour.",
          "total_accrued_revenue": null,
          "updated": "2018-08-23 11:57:33",
          "vat_name": null,
          "vat_number": null,
          "vis_state": 0
        },
        {
          "accounting_systemid": "y5lRP",
          "address": "",
          "amount": {
            "amount": "5.00",
            "code": "CAD"
          },
          "auto_bill": false,
          "bill_gateway": null,
          "city": "",
          "code": "",
          "country": "Canada",
          "create_date": "2021-10-31",
          "currency_code": "CAD",
          "customerid": 339882,
          "description": "Changing description",
          "disable": true,
          "discount_total": {
            "amount": "0.00",
            "code": "CAD"
          },
          "discount_value": "0",
          "due_offset_days": 2,
          "ext_archive": null,
          "fname": "Smeagol",
          "frequency": "m",
          "id": 28812,
          "include_unbilled_time": false,
          "language": "en",
          "lname": "Gollum",
          "notes": "::year+2::",
          "numberRecurring": 6,
          "occurrences_to_date": 6,
          "organization": "Smeagol Gollum",
          "ownerid": 1,
          "payment_details": "",
          "po_number": null,
          "profileid": 28812,
          "province": "",
          "require_auto_bill": false,
          "retainer_id": null,
          "send_email": true,
          "send_gmail": false,
          "street": "",
          "street2": "",
          "terms": "::year+2::",
          "total_accrued_revenue": null,
          "updated": "2022-01-04 12:43:45",
          "vat_name": null,
          "vat_number": null,
          "vis_state": 0
        },
        {
          "accounting_systemid": "y5lRP",
          "address": "",
          "amount": {
            "amount": "20000.00",
            "code": "CAD"
          },
          "auto_bill": false,
          "bill_gateway": null,
          "city": "",
          "code": "",
          "country": "Canada",
          "create_date": "2021-05-04",
          "currency_code": "CAD",
          "customerid": 440603,
          "description": "Z-Tape reading",
          "disable": false,
          "discount_total": {
            "amount": "0.00",
            "code": "CAD"
          },
          "discount_value": "0",
          "due_offset_days": 30,
          "ext_archive": null,
          "fname": "Ryan",
          "frequency": "y",
          "id": 18358,
          "include_unbilled_time": false,
          "language": "en",
          "lname": "Jones",
          "notes": "",
          "numberRecurring": 6,
          "occurrences_to_date": 6,
          "organization": "Ryan Jones",
          "ownerid": 1,
          "payment_details": "",
          "po_number": null,
          "profileid": 18358,
          "province": "",
          "require_auto_bill": false,
          "retainer_id": null,
          "send_email": true,
          "send_gmail": false,
          "street": "",
          "street2": "",
          "terms": null,
          "total_accrued_revenue": null,
          "updated": "2021-04-23 15:31:06",
          "vat_name": null,
          "vat_number": "",
          "vis_state": 0
        },
        {
          "accounting_systemid": "y5lRP",
          "address": "",
          "amount": {
            "amount": "10000.00",
            "code": "CAD"
          },
          "auto_bill": false,
          "bill_gateway": null,
          "city": "",
          "code": "",
          "country": "Canada",
          "create_date": "2021-10-26",
          "currency_code": "CAD",
          "customerid": 321918,
          "description": "the book, see Imperial China: 900\u20131800.\n\nApproximate territories occupied by the various dynasties and states throughout the history of China\nHistory of China\nHistory of China\nANCIENT\nNeolithic c. 8500 \u2013 c. 2070 BC\nXia dynasty c. 2070 \u2013 c. 1600 BC\nShang dynasty c. 1600 \u2013 c. 1046 BC\nZhou dynasty c. 1046 \u2013 256 BC\n Western Zhou\n Eastern Zhou\n   Spring and Autumn\n   Warring States\nIMPERIAL\nQin dynasty 221\u2013206 BC\nHan dynasty 206 BC \u2013 220 AD\n  Western Han\n  Xin dynasty\n  Eastern Han\nThree Kingdoms 220\u2013280\n  Wei, Shu and Wu\nJin dynasty 265\u2013420\n  Western Jin\n  Eastern Jin\tSixteen Kingdoms\nNorthern and Southern dynasties\n420\u2013589\nSui dynasty 581\u2013618\nTang dynasty 618\u2013907\n  (Second Zhou dynasty 690\u2013705)\nFive Dynasties and\nTen Kingdoms\n907\u2013960\tLiao dynasty\n907\u20131125\nSong dynasty\n960\u20131279\t\n  Northern Song\t\tWestern Xia\n  Southern Song\tJin\t\nYuan dynasty 1271\u20131368\nMing dynasty 1368\u20131644\nQing dynasty 1644\u20131911\nMODERN\nRepublic of China 1912\u20131949\nPeople's Republic\nof China\n1949\u2013present\tRepublic of\nChina (Taiwan)\n1949\u2013present\nRelated articles [show]\nThis box: view talk edit\nWritten records of the history of China can be found from as early as 1500 BC[1][2] under the Shang dynasty (c. 1600\u20131046 BC).[3] Ancient historical texts such as the Records of the Grand Historian (ca. 100 BC) and the Bamboo Annals describe a Xia dynasty (c. 2070\u20131600 BC), which had no system of writing on a durable medium, before the Shang.[3][4] The Yellow River is said to be the cradle of Chinese civilization, although cultures originated at various regional centers along both the Yellow River and the Yangtze River valleys millennia ago in the Neolithic era. With thousands of years of continuous history, China is one of the world's oldest civilizations,[5] and is regarded as one of the cradles of civilization.[6]\nMuch of Chinese culture, literature and philosophy further developed during the Zhou dynasty (1046\u2013256 BC). The Zhou dynasty began to bow to external and internal pressures in the 8th century BC, and the kingdom eventually broke apart into smaller states, beginning in the Spring and Autumn period and reaching full expression in the Warring States period. This is one of multiple periods of failed statehood in Chinese history, the most recent being the Chinese Civil War that started in 1927.\nBetween eras of multiple kingdoms and warlordism, Chinese dynasties have ruled parts or all of China; in some eras control stretched as far as Xinjiang and Tibet, as at present. In 221 BC Qin Shi Huang united the various warring kingdoms and created for himself the title of \"emperor\" (huangdi) of the Qin dynasty, marking the beginning of imperial China. Successive dynasties developed bureaucratic systems that enabled the emperor to control vast",
          "disable": false,
          "discount_total": {
            "amount": "0.00",
            "code": "CAD"
          },
          "discount_value": "0",
          "due_offset_days": 30,
          "ext_archive": null,
          "fname": "example",
          "frequency": "y",
          "id": 18153,
          "include_unbilled_time": false,
          "language": "en",
          "lname": "client",
          "notes": "hey",
          "numberRecurring": 18,
          "occurrences_to_date": 18,
          "organization": "no one in particular",
          "ownerid": 1,
          "payment_details": "",
          "po_number": null,
          "profileid": 18153,
          "province": "Alberta",
          "require_auto_bill": false,
          "retainer_id": null,
          "send_email": true,
          "send_gmail": false,
          "street": "",
          "street2": "",
          "terms": null,
          "total_accrued_revenue": null,
          "updated": "2021-10-26 16:12:46",
          "vat_name": null,
          "vat_number": null,
          "vis_state": 0
        }
      ],
      "page": 5,
      "pages": 5,
      "per_page": 15,
      "total": 67
    }
  }
}